Chapter 7 Chronologique des esclaves embarqués par années | Explorer la Trans-Atlantic Slave trade Database avec R
…
# Syntaxe 1
voyages %>%
  filter (!is.na(slaximp)) %>%
  filter (yearam >= 1653) %>% 
  group_by (yearam) %>%
  summarise (n_esc = sum(slaximp))

# Syntaxe 2
voyages %>%
  filter (complete.cases(slaximp)) %>% 
  filter (yearam >= 1653) %>% 
  group_by (yearam) %>%
  summarise (n_esc = sum(slaximp))

## # A tibble: 214 x 2
##    yearam n_esc
##     <dbl> <dbl>
##  1   1653  3037
##  2   1654  5488
##  3   1655  4270
##  4   1656  5675
##  5   1657  4596
##  6   1658  7037
##  7   1659  8184
##  8   1660  5549
##  9   1661  5157
## 10   1662  5290
## # ... with 204 more rows
