Chapitre4 Chronologies | Explorer la Trans-Atlantic Slave trade Database avec R
…
## # A tibble: 1 x 2
##   date_max date_min
##      <dbl>    <dbl>
## 1     1866     1514

4.2.2 Expéditions de traite

4.2.2.1 Tableau d’effectifs

Il s’agit de compter, pour chacune des valeurs de la variable yearam, le nombre d’observations ayant cette valeur. Ce « nombre de fois » s’appelle l’effectif. La construction d’un tableau d’effectifs appartient à la catégorie des opérations groupées dans Dplyr et s’effectue par le biais de la fonction count. La colonne d’effectifs est automatiquement appelée n.

voyages %>%
  count(yearam)

## # A tibble: 335 x 2
##    yearam     n
##     <dbl> <int>
##  1   1514     1
##  2   1516     1
##  3   1520     1
##  4   1525     1
##  5   1526     5
##  6   1527     1
##  7   1532     5
##  8   1533     1
##  9   1534     2
## 10   1535     2
## # ... with 325 more rows
…
# Syntaxe 1
voyages %>%
  filter (!is.na(slaximp)) %>%
  filter (yearam >= 1653) %>% 
  group_by (yearam) %>%
  summarise (n_esc = sum(slaximp))

# Syntaxe 2
voyages %>%
  filter (complete.cases(slaximp)) %>% 
  filter (yearam >= 1653) %>% 
  group_by (yearam) %>%
  summarise (n_esc = sum(slaximp))

## # A tibble: 214 x 2
##    yearam n_esc
##     <dbl> <dbl>
##  1   1653  3037
##  2   1654  5488
##  3   1655  4270
##  4   1656  5675
##  5   1657  4596
##  6   1658  7037
##  7   1659  8184
##  8   1660  5549
##  9   1661  5157
## 10   1662  5290
## # ... with 204 more rows
…
4.3 Chronologies comparatives de la traite

4.3.1 Chronologie des expéditions en fonction des pavillons de navires

4.3.1.1 Tableaux

4.3.1.1.1 Tableau long

voyages %>%
  count(yearam, natinimp)

## # A tibble: 1,386 x 3
##    yearam natinimp              n
##     <dbl> <chr>             <int>
##  1   1514 Portugal / Brazil     1
##  2   1516 Portugal / Brazil     1
##  3   1520 <NA>                  1
##  4   1525 Portugal / Brazil     1
##  5   1526 Portugal / Brazil     1
##  6   1526 Spain / Uruguay       2
##  7   1526 <NA>                  2
##  8   1527 Spain / Uruguay       1
##  9   1532 Portugal / Brazil     3
## 10   1532 Spain / Uruguay       1
## # ... with 1,376 more rows

4.3.1.1.2 Tableau large (à double-entrées)

La fonction pivot_wider du package tidyr(cf. tidyverse) vous permet de transformer des lignes en colonnes et ainsi passer d’un format de tableau long à un format large, où les nationalités deviennent des colonnes. names_from indique la colonne contenant les noms des nouvelles variables à créer et values_from indique la colonne contenant les valeurs de ces variables.

voyages %>%
  count(yearam, natinimp) %>%
   pivot_wider(names_from = natinimp, values_from = n) 

## # A tibble: 335 x 11
##    yearam `Portugal / Bra~  `NA` `Spain / Urugua~ `Great Britain` France
##     <dbl>            <int> <int>            <int>           <int>  <int>
##  1   1514                1    NA               NA              NA     NA
##  2   1516                1    NA               NA              NA     NA
##  3   1520               NA     1               NA              NA     NA
##  4   1525                1    NA               NA              NA     NA
##  5   1526                1     2                2              NA     NA
##  6   1527               NA    NA                1              NA     NA
##  7   1532                3     1                1              NA     NA
##  8   1533               NA     1               NA              NA     NA
##  9   1534                2    NA               NA              NA     NA
## 10   1535                2    NA               NA              NA     NA
## # ... with 325 more rows, and 5 more variables: Netherlands <int>, `Denmark /
## #   Baltic` <int>, USA <int>, Other <int>, Portugal <int>
…
4.3.1.4 Chronologie comparative des expéditions de traite en fonction des ports de départs

4.3.1.4.1 Evolution des ports entre 1774 et 1779

La période 1774-1779 connaît une chute brutale de la traite. Les instructions ci dessous visent à décrire l’évolution des expéditions en fonction des ports.

evolution_ports_1774_79 <- voyages %>%
  filter(yeardep >= 1774 & yeardep <= 1779) %>%
  count(ptdepimp, yeardep) %>%
  pivot_wider(names_from = yeardep, values_from = n, names_prefix = "annee_") 
  evolution_ports_1774_79

## # A tibble: 47 x 7
##    ptdepimp    annee_1774 annee_1775 annee_1776 annee_1777 annee_1778 annee_1779
##    <chr>            <int>      <int>      <int>      <int>      <int>      <int>
##  1 Amsterdam            1          1          1         NA         NA         NA
##  2 Antigua, p~         NA          1         NA         NA         NA         NA
##  3 Bahia, por~         22         24         21         19         29         29
##  4 Barbados, ~         NA         NA          1         NA         NA         NA
##  5 Bordeaux            13         10         10          3          2         NA
##  6 Boston               7         NA         NA         NA         NA         NA
##  7 Bristol             20         20          8          2          2         NA
##  8 British Ca~         NA         NA          3         NA          1         NA
##  9 Charleston           2         NA         NA         NA         NA         NA
## 10 Chester             NA          1         NA         NA         NA         NA
## # ... with 37 more rows
…
4.4 Exemples

4.4.1 Chronologie des expéditions de traite à destination de Saint-Domingue

4.4.1.1 Tableau d’effectifs

Vous devez filtrer les expéditions en vous fondant sur la variable mjselimp (Imputed principal region of slave disembarkation) puis compter le nombre d’expéditions par années d’arrivée en Amérique (variable yearam) avec la fonction count.

stdoming1 <- voyages %>%
  filter(mjselimp =="Saint-Domingue") %>%
  count(yearam) 

print(stdoming1)

## # A tibble: 96 x 2
##    yearam     n
##     <dbl> <int>
##  1   1679     2
##  2   1684     1
##  3   1685     4
##  4   1686     3
##  5   1687     1
##  6   1693     1
##  7   1699     2
##  8   1701     2
##  9   1708     1
## 10   1709     1
## # ... with 86 more rows
…
4.4.2 Nombre d’esclaves embarqués par années à destination de Saint-Domingue

4.4.2.1 Tableau

Excluez en premier les expéditions dont le nombre d’esclaves embarqués (variable slaximp ) est inconnu par l’utilisation conjointe des fonctions filteret complete.cases. Regroupez ensuite les années d’arrivée en Amérique en appliquant la fonction group_by à la variable yearam afin de pouvoir résumer les données (summarise) par la somme (sum) des esclaves embarqués.

stdoming2 <- voyages %>%
  filter(mjselimp =="Saint-Domingue") %>%
  filter(complete.cases(slaximp)) %>%           
  group_by(yearam) %>%
  summarise(n_esc = sum(slaximp))
print(stdoming2)

## # A tibble: 96 x 2
##    yearam n_esc
##     <dbl> <dbl>
##  1   1679   436
##  2   1684   380
##  3   1685  1092
##  4   1686   504
##  5   1687   316
##  6   1693   524
##  7   1699   781
##  8   1701   607
##  9   1708   316
## 10   1709   592
## # ... with 86 more rows
…
4.4.3 Chronologie décennale des expéditions de traite à destination de Saint-Domingue selon les ports de départ

Filtrez les expéditions en vous fondant sur la variable mjselimp (Imputed principal region of slave disembarkation) puis compter le nombre d’expéditions par ports de départs (ptdepimp) et par décennies (variable year10) avec la fonction count.

stdoming_y10A <- voyages %>%
  filter(mjselimp =="Saint-Domingue") %>%
  count(year10, ptdepimp)
print(stdoming_y10A )

## # A tibble: 134 x 3
##    year10          ptdepimp                     n
##    <chr>           <chr>                    <int>
##  1 years 1671-1680 France, port unspecified     1
##  2 years 1671-1680 Saint-Malo                   1
##  3 years 1681-90   Bordeaux                     1
##  4 years 1681-90   Dunkerque                    1
##  5 years 1681-90   Honfleur                     1
##  6 years 1681-90   La Rochelle                  2
##  7 years 1681-90   Le Havre                     3
##  8 years 1681-90   Saint-Malo                   1
##  9 years 1691-1700 Saint-Malo                   1
## 10 years 1691-1700 <NA>                         2
## # ... with 124 more rows

4.4.3.0.1 Diagramme en barres empilées

Un diagramme à barres empilées permet de visualiser le nombre total des expéditions à destination de Saint-Domingue par décennies et ports de départ des navires.

voyages %>%
  filter(mjselimp =="Saint-Domingue") %>%
  distinct(ptdepimp)

## # A tibble: 38 x 1
##    ptdepimp                   
##    <chr>                      
##  1 <NA>                       
##  2 Nantes                     
##  3 Vlissingen                 
##  4 Hellevoetsluis             
##  5 Bristol                    
##  6 St. Kitts, port unspecified
##  7 Boston                     
##  8 St. Thomas                 
##  9 Bayonne                    
## 10 Bordeaux                   
## # ... with 28 more rows

38 ports ont pratiqué la traite à destination de Saint-Domingue. Afin d’envisager un diagramme en barres empilées lisible vous devez regrouper les ports dont l’activité est la moins importante sous le dénominatif “autres”. Pour ce faire, les fonctions mutate et replace sont utilisées pour recoder les noms de ports en fonction d’une condition. Ainsi, tous les ports dont le nombre d’expéditions est inférieur à 50 par décennies n < 50 sont renommés en Autres (exped. < 20) permettant de passer de 38 à 5 valeurs différentes.
Enfin le texte years préfixant les décennies est supprimé ou plus exactement remplacé par une chaîne de caractères vide (fonction subassociée à mutate).

library(dplyr)
stdoming_y10B <- voyages %>%
  filter(mjselimp =="Saint-Domingue") %>%
  count(year10, ptdepimp) %>%
  mutate(ptdepimp = replace(ptdepimp, n < 50, "Autres (exped. < 50)")) %>%
  mutate(year10 = sub("years", "", year10))

stdoming_y10B

## # A tibble: 134 x 3
##    year10       ptdepimp                 n
##    <chr>        <chr>                <int>
##  1 " 1671-1680" Autres (exped. < 50)     1
##  2 " 1671-1680" Autres (exped. < 50)     1
##  3 " 1681-90"   Autres (exped. < 50)     1
##  4 " 1681-90"   Autres (exped. < 50)     1
##  5 " 1681-90"   Autres (exped. < 50)     1
##  6 " 1681-90"   Autres (exped. < 50)     2
##  7 " 1681-90"   Autres (exped. < 50)     3
##  8 " 1681-90"   Autres (exped. < 50)     1
##  9 " 1691-1700" Autres (exped. < 50)     1
## 10 " 1691-1700" Autres (exped. < 50)     2
## # ... with 124 more rows
…
