Chapter 6 Chronologie des expéditions de traite | Explorer la Trans-Atlantic Slave trade Database avec R
…
            Explorer la Trans-Atlantic Slave trade Database avec R

Chapter 6 Chronologie des expéditions de traite

6.1 Tableau d’effectifs

Il s’agit de compter, pour chacune des valeurs de la variable yearam, le nombre d’observations ayant cette valeur. Ce « nombre de fois » s’appelle l’effectif. La construction d’un tableau d’effectifs appartient à la catégorie des opérations groupées dans Dplyr et s’effectue par le biais de la fonction count. La colonne d’effectifs est automatiquement appelée n.

voyages %>%
  count(yearam)

## # A tibble: 335 x 2
##    yearam     n
##     <dbl> <int>
##  1   1514     1
##  2   1516     1
##  3   1520     1
##  4   1525     1
##  5   1526     5
##  6   1527     1
##  7   1532     5
##  8   1533     1
##  9   1534     2
## 10   1535     2
## # ... with 325 more rows
…
