Chapter 8 Chronologie comparative des expéditions de traite | Explorer la Trans-Atlantic Slave trade Database avec R
…
            Explorer la Trans-Atlantic Slave trade Database avec R

Chapter 8 Chronologie comparative des expéditions de traite

8.1 En fonction des pavillons de navires

8.1.1 Tableaux

8.1.1.1 Tableau long

voyages %>%
  count(yearam, natinimp)

## # A tibble: 1,386 x 3
##    yearam natinimp              n
##     <dbl> <chr>             <int>
##  1   1514 Portugal / Brazil     1
##  2   1516 Portugal / Brazil     1
##  3   1520 <NA>                  1
##  4   1525 Portugal / Brazil     1
##  5   1526 Portugal / Brazil     1
##  6   1526 Spain / Uruguay       2
##  7   1526 <NA>                  2
##  8   1527 Spain / Uruguay       1
##  9   1532 Portugal / Brazil     3
## 10   1532 Spain / Uruguay       1
## # ... with 1,376 more rows

8.1.1.2 Tableau large (à double-entrées)

La fonction pivot_wider vous permet de transformer des lignes en colonnes et ainsi passer d’un format de tableau long à un format large, où les nationalités deviennent des colonnes. names_from indique la colonne contenant les noms des nouvelles variables à créer et values_from indique la colonne contenant les valeurs de ces variables.

library(tidyr)

voyages %>%
  count(yearam, natinimp) %>%
   pivot_wider(names_from = natinimp, values_from = n) 

## # A tibble: 335 x 11
##    yearam `Portugal / Bra~  `NA` `Spain / Urugua~ `Great Britain` France
##     <dbl>            <int> <int>            <int>           <int>  <int>
##  1   1514                1    NA               NA              NA     NA
##  2   1516                1    NA               NA              NA     NA
##  3   1520               NA     1               NA              NA     NA
##  4   1525                1    NA               NA              NA     NA
##  5   1526                1     2                2              NA     NA
##  6   1527               NA    NA                1              NA     NA
##  7   1532                3     1                1              NA     NA
##  8   1533               NA     1               NA              NA     NA
##  9   1534                2    NA               NA              NA     NA
## 10   1535                2    NA               NA              NA     NA
## # ... with 325 more rows, and 5 more variables: Netherlands <int>, `Denmark /
## #   Baltic` <int>, USA <int>, Other <int>, Portugal <int>
…
