Chapitre2 Inventaire des données | Explorer la Trans-Atlantic Slave trade Database avec R
…
2.3 Expéditions ajoutées à l’édition 2019 de la base Trans Atlantic slave trade Dabase

Vous devez préalablement télécharger la version 2010 de la base de données (tastdb-exp-2010.sav) dans votre répertoire de travail ainsi que le script de lecture (tastdb10-spss-import.R) depuis l’adresse https://github.com/wilcar/slaves-voyages). La lecture des données par l’instruction ci-dessous. La base de donnée est importée sous le nom voyages_10.

source("tastdb10-spss-import.R")

Pour identifier les expéditions ajoutées à l’édition 2019 de la base de données, vous aller effectuer une jointure entre les deux bases en utilisant fonction anti_join du package dplyr. Elle renvoie toutes les lignes de la table de “gauche” pour lesquelles il n’y a pas de valeurs correspondantes dans la table de “droite”. Les termes “gauche et”droite" renvoient à la position des arguments d’anti_join, voyages étant à gauche devoyage_10`.

voyages_nouv1 <- anti_join(voyages, voyages_10, by ="voyageid")

voyages_nouv1 %>%
  count(year100, national) %>%
  arrange(year100, -n)

## # A tibble: 34 x 3
##    year100 national          n
##      <dbl> <chr>         <int>
##  1    1500 <NA>            395
##  2    1500 France            3
##  3    1500 Portugal          2
##  4    1500 Spain             2
##  5    1600 <NA>            206
##  6    1600 Great Britain    41
##  7    1600 Spain            22
##  8    1600 Portugal          8
##  9    1600 Netherlands       6
## 10    1600 USA               4
## # ... with 24 more rows

voyages_nouv1 %>%
  count(year100, ptdepimp) %>%
  arrange(year100, -n)

## # A tibble: 86 x 3
##    year100 ptdepimp                                  n
##      <dbl> <chr>                                 <int>
##  1    1500 <NA>                                    274
##  2    1500 San Lucar                                71
##  3    1500 Seville                                  17
##  4    1500 Canary Islands                           13
##  5    1500 Lisbon                                   13
##  6    1500 Tenerife                                  9
##  7    1500 Cadiz                                     3
##  8    1500 Portugal, port unspecified                1
##  9    1500 Spanish Circum-Caribbean, unspecified     1
## 10    1600 <NA>                                    185
## # ... with 76 more rows
