Chapter 9 Prise en considération des années pour lesquelles des mentions d’expéditions de traite sont absentes. | Explorer la Trans-Atlantic Slave trade Database avec R
…
            Explorer la Trans-Atlantic Slave trade Database avec R

Chapter 9 Prise en considération des années pour lesquelles des mentions d’expéditions de traite sont absentes.

9.1 Tableau chronologique des expéditions de traite

n_exped

## # A tibble: 335 x 2
##    yearam     n
##     <dbl> <int>
##  1   1514     1
##  2   1516     1
##  3   1520     1
##  4   1525     1
##  5   1526     5
##  6   1527     1
##  7   1532     5
##  8   1533     1
##  9   1534     2
## 10   1535     2
## # ... with 325 more rows
…
